{
    "coming": [{
        "id": 246061,
        "img": "http://p0.meituan.net/w.h/movie/71fba05fbe4912cb70d27b87c3c856393364925.jpg",
        "wish": 223277,
        "wishst": 0,
        "nm": "哥斯拉2：怪兽之王",
        "comingTitle": "5月31日 周五"
    }, {
        "id": 344328,
        "img": "http://p0.meituan.net/w.h/movie/47af2656af6cd0110057bc527b862c665484423.jpg",
        "wish": 181730,
        "wishst": 0,
        "nm": "X战警：黑凤凰",
        "comingTitle": "6月6日 周四"
    }, {
        "id": 345621,
        "img": "http://p0.meituan.net/w.h/moviemachine/07e846797e2c886084d4377822036e1a1464615.jpg",
        "wish": 162714,
        "wishst": 0,
        "nm": "双生",
        "comingTitle": "5月18日 周六"
    }, {
        "id": 1218029,
        "img": "http://p0.meituan.net/w.h/movie/e11213b2676bcf6f4eac41c482af2bdd327884.jpg",
        "wish": 161987,
        "wishst": 0,
        "nm": "少年的你",
        "comingTitle": "6月27日 周四"
    }, {
        "id": 1218141,
        "img": "http://p1.meituan.net/w.h/moviemachine/ced8d9b1ea941aa333104ce4fa371f05203502.jpg",
        "wish": 98087,
        "wishst": 0,
        "nm": "扫毒2天地对决",
        "comingTitle": "7月12日 周五"
    }, {
        "id": 346559,
        "img": "http://p0.meituan.net/w.h/movie/2a275c68da26ab87757cdeb213c98bc73651258.png",
        "wish": 77714,
        "wishst": 0,
        "nm": "黑衣人：全球追缉",
        "comingTitle": "6月14日 周五"
    }, {
        "id": 1207185,
        "img": "http://p0.meituan.net/w.h/movie/313ed0afcdb4d1cc37cd12b402e9e4421137394.jpg",
        "wish": 62979,
        "wishst": 0,
        "nm": "秦明·生死语者",
        "comingTitle": "6月14日 周五"
    }, {
        "id": 1218215,
        "img": "http://p0.meituan.net/w.h/movie/c0a02897fa49e5c529bfe3cead0f49652270427.jpg",
        "wish": 52283,
        "wishst": 0,
        "nm": "追龙Ⅱ",
        "comingTitle": "6月6日 周四"
    }, {
        "id": 1219454,
        "img": "http://p1.meituan.net/w.h/movie/add2ab162d018ceb1351e6e8e465d92f650170.jpg",
        "wish": 50122,
        "wishst": 0,
        "nm": "龙珠超：布罗利",
        "comingTitle": "5月24日 周五"
    }, {
        "id": 1197417,
        "img": "http://p0.meituan.net/w.h/moviemachine/4e99b803b4a15c1286a7d984f864c981346472.jpg",
        "wish": 45110,
        "wishst": 0,
        "nm": "使徒行者2：谍影行动",
        "comingTitle": "8月9日 周五"
    }],
    "paging": {
        "hasMore": true,
        "limit": 10,
        "offset": 0,
        "total": 82
    }
}